D:\git_repository\Gara_Auto\src\main\java\com\autogara\spring\dao\impl\RouteDAOImpl.java
D:\git_repository\Gara_Auto\src\main\java\com\autogara\spring\model\enums\UserStatus.java
D:\git_repository\Gara_Auto\src\main\java\com\autogara\spring\service\impl\OfficeServiceImpl.java
D:\git_repository\Gara_Auto\src\main\java\com\autogara\spring\util\CustomEntryPoint.java
D:\git_repository\Gara_Auto\src\main\java\com\autogara\controller\IndexManageadBean.java
D:\git_repository\Gara_Auto\src\main\java\com\autogara\spring\model\SecondaryRoute.java
D:\git_repository\Gara_Auto\src\main\java\com\autogara\spring\dao\impl\OfficeDAOImpl.java
D:\git_repository\Gara_Auto\src\main\java\com\autogara\spring\model\Locality.java
D:\git_repository\Gara_Auto\src\main\java\com\autogara\spring\model\Office.java
D:\git_repository\Gara_Auto\src\main\java\com\autogara\spring\model\Role.java
D:\git_repository\Gara_Auto\src\main\java\com\autogara\spring\dao\GenericDAO.java
D:\git_repository\Gara_Auto\src\main\java\com\autogara\spring\dao\impl\UserDAOImpl.java
D:\git_repository\Gara_Auto\src\main\java\com\autogara\controller\RouteManageadBean.java
D:\git_repository\Gara_Auto\src\main\java\com\autogara\spring\model\Route.java
D:\git_repository\Gara_Auto\src\main\java\com\autogara\spring\service\OfficeService.java
D:\git_repository\Gara_Auto\src\main\java\com\autogara\spring\dao\SecondaryRouteDAO.java
D:\git_repository\Gara_Auto\src\main\java\com\autogara\spring\dao\UserDAO.java
D:\git_repository\Gara_Auto\src\main\java\com\autogara\spring\service\impl\RouteServiceImpl.java
D:\git_repository\Gara_Auto\src\main\java\com\autogara\spring\dao\OfficeDAO.java
D:\git_repository\Gara_Auto\src\main\java\com\autogara\spring\service\impl\SecondaryRouteServiceImpl.java
D:\git_repository\Gara_Auto\src\main\java\com\autogara\spring\service\LocalityService.java
D:\git_repository\Gara_Auto\src\main\java\com\autogara\spring\model\User.java
D:\git_repository\Gara_Auto\src\main\java\com\autogara\spring\service\UserService.java
D:\git_repository\Gara_Auto\src\main\java\com\autogara\spring\service\SecondaryRouteService.java
D:\git_repository\Gara_Auto\src\main\java\com\autogara\spring\service\impl\UserServiceImpl.java
D:\git_repository\Gara_Auto\src\main\java\com\autogara\spring\dao\LocalityDAO.java
D:\git_repository\Gara_Auto\src\main\java\com\autogara\spring\service\impl\LocalityServiceImpl.java
D:\git_repository\Gara_Auto\src\main\java\com\autogara\controller\language\LanguageBean.java
D:\git_repository\Gara_Auto\src\main\java\com\autogara\spring\service\RouteService.java
D:\git_repository\Gara_Auto\src\main\java\com\autogara\spring\dao\impl\LocalityDAOImpl.java
D:\git_repository\Gara_Auto\src\main\java\com\autogara\controller\security\LoginManagementBean.java
D:\git_repository\Gara_Auto\src\main\java\com\autogara\controller\security\SecurityTagBean.java
D:\git_repository\Gara_Auto\src\main\java\com\autogara\spring\dao\impl\SecondaryRouteDAOImpl.java
D:\git_repository\Gara_Auto\src\main\java\com\autogara\spring\dao\RouteDAO.java
D:\git_repository\Gara_Auto\src\main\java\com\autogara\spring\service\impl\UserDetailsServiceImpl.java
D:\git_repository\Gara_Auto\src\main\java\com\autogara\spring\dao\impl\GenericDAOImpl.java
